﻿----------
| Title: |
----------
GPX Viewer PRO - 궤적, 경로, 지점



-------------------------------------------------------------------------------------
| Short description (maximum allowed length in Google Play Store is 80 characters): |
-------------------------------------------------------------------------------------
GPX Viewer PRO 는 gpx파일과 kml파일의 궤적, 경로, 지점을 보여줍니다.



----------------
| Description: |
----------------
gpx, kml, kmz, loc파일을 열 수 있으며 그밖에 많은 기능이 있습니다. 우리가 오프라인 벡터 지도앱 중에서 높은 평가를 받은 이유가 있습니다. GPX Viewer PRO 는 궁극의 GPS 위치측정, GPS 궤적을 보여주거나 기록과 분석을 할 수 있으며 야외활동과 여행 중에 간단한 내비게이션으로 이용이 가능합니다. 

<b>GPX, KML, KMZ AND LOC</b>
• gpx, kml, kmz, loc파일의 궤적, 경로, 지점을 보여줍니다.
• 다양한 파일을 열 수 있고 즐겨찾기와 열람내역을 제공합니다.
• gpx파일을 gpz로 그리고 kml파일을 kmz파일로 압축할 수 있습니다.(zip 압축)

<b>자세한 이동 데이터</b>
• 궤적과 경로의 정보와 통계 분석
• 궤적과 경로의 고도와 속도 그래프
• 그 외의 케이던스, 심박, 온도와 같은 데이터 그래프
• 지점 정보 분석과 지점 아이콘 변경
• 궤적과 경로의 색깔 변경
• 고도, 속도, 케이던스, 심박, 온도에 따른 궤적과 경로의 색표현

<b>온라인 지도</b>
• 구글지도, 맵박스, 히어, 선더포레스트, 그밖에 오픈스트리트맵 데이터에 기반한 다른 온라인 지도들이 있습니다 찾아보기: https://go.vecturagames.com/online
• 오픈웨더맵을 통한 날씨 레이어 추가
• 사용자 설정 온라인 지도 추가(TMS, WMS)

<b>간단한 내비게이션 기능</b>
• 지도상에 현재 GPS 위치 표시
• GPS위치에 맞춰 지도에 표시
• 기기의 센서 방향이나 GPS상의 움직임 방향에 따라 지도 회전
• GPS위치 추적과 지도 회전 기능을 통해 GPS뷰어는 간단한 내비게이션용으로 쓸 수 있습니다.
• GPS 위치가 사전 설정한 거리상의 지점 근처에 가면 알림

<b>TRACKBOOK 통합</b>
• Trackbook - https://trackbook.online 에서 생성 된 트랙과 웨이 포인트 동기화

<b>오프라인 지도 (프로 버전)</b>
• 오픈스트리트맵 데이터에 근거한 정밀한 오프라인 벡터 지도
• 도시부터 야외 지향 스타일까지 다양한 오프라인 지도 찾아보기: https://go.vecturagames.com/offline
• 향상된 데이터로 매달 업데이트

<b>궤적 기록 (프로 버전)</b>
• 이동기록을 gpx나 kml파일로 기록하고 추출
• 고도와 속도 통계 기록
• 다양한 야외 활동을 위한 프로필 지원
• 거리나 시간을 음성으로 알림

<b>일기 예보 (프로 버전)</b>
• 다음 7 일간의 일기 예보
• 시간별 예측 표시

---------

GPX Viewer PRO 는 사용자 맞춤형입니다. 여러분들이 원하는 대로 수정해보세요!

여러분들이 오프라인 지도, 간단한 내비게이션, 벡터 오프라인 지도, GPS위치 측정기, GPS 궤적 뷰어, 이동 기록 뷰어, GPS 궤적 기록,  그밖의 유용한 기능이 있는 gpx 뷰어를 찾고 계시다면 GPX Viewer PRO 는 최고의 앱일 것입니다!



----------------------------
| Screenshot descriptions: |
----------------------------
1. gpx파일과 kml파일의 궤적, 경로, 지점 표시
2. OpenStreetMap을 기반으로 한 오프라인 벡터지도
3. 트랙 녹음
4. 트랙 및 웨이포인트 생성 및 편집
5. 궤적 분석
6. 웨이포인트 추가 및 사용자 지정
7. 오픈웨더맵, WMS 사용자 지도 등 다양한 지도 형식
8. 고도, 속도, 케이던스, 심박, 힘 그래프
